/mnt/ssd/Users/Mehg/Documents/FER/6. sem/Uvod u umjetnu inteligenciju/Laboratorijske vježbe/01/lab1java/src/main/java/ui/algorithms/UCS.java
/mnt/ssd/Users/Mehg/Documents/FER/6. sem/Uvod u umjetnu inteligenciju/Laboratorijske vježbe/01/lab1java/src/main/java/ui/algorithms/BFS.java
/mnt/ssd/Users/Mehg/Documents/FER/6. sem/Uvod u umjetnu inteligenciju/Laboratorijske vježbe/01/lab1java/src/main/java/ui/Solution.java
/mnt/ssd/Users/Mehg/Documents/FER/6. sem/Uvod u umjetnu inteligenciju/Laboratorijske vježbe/01/lab1java/src/main/java/ui/algorithms/Algorithm.java
/mnt/ssd/Users/Mehg/Documents/FER/6. sem/Uvod u umjetnu inteligenciju/Laboratorijske vježbe/01/lab1java/src/main/java/ui/Node.java
/mnt/ssd/Users/Mehg/Documents/FER/6. sem/Uvod u umjetnu inteligenciju/Laboratorijske vježbe/01/lab1java/src/main/java/ui/algorithms/ASTAR.java
